module gitlab.com/nevasik7/tglib

go 1.21.6

toolchain go1.21.7

require (
	github.com/pkg/errors v0.9.1
	github.com/rs/zerolog v1.33.0
)

require (
	github.com/mattn/go-colorable v0.1.13 // indirect
	github.com/mattn/go-isatty v0.0.19 // indirect
	golang.org/x/sys v0.12.0 // indirect
)
